on_actions = {
    on_startup = {
        effect = {
            every_country = {
                coal_set_up = yes
            }
        }
    }
    on_government_change = {
    	effect = {
    		coal_set_up = yes
    	}
    }
}