state={
	id=108
	name="STATE_108"
	resources={
		steel=3.000
	}

	history={
		victory_points = {
			9602 3
		}
		owner = SER
		buildings = {
			infrastructure = 4

		}
		add_core_of = YUG
		add_core_of = SER

	}

	provinces={
		630 3922 3939 6953 6970 6998 9602 9756 9906 11832 11857 11868 11887 
	}
	manpower=1433000 # Review Populations
	buildings_max_level_factor=1.000
	state_category=town
}
