
state={
	id=340
	name="STATE_340"
	manpower = 1026527
	resources={
		chromium=39 # was: 54
	}

	state_category = town

	history={
		owner = GRE
		buildings = {
			infrastructure = 4
			industrial_complex = 1
		}
		
		victory_points = {
			947 1 
		}
		add_core_of = TUR
		add_core_of = GRE
	}

	provinces={
		947 3786 3851 6864 6912 9799 9887 11778 11867 
	}
}
