state={
	id=432
	name="STATE_432"
	resources={
		oil=5.000
	}

	history={
		owner = BHC
		buildings = {
			infrastructure = 3

		}
		add_core_of = BHC

	}

	provinces={
		997 1075 1497 1525 1553 1581 7455 7634 10090 10349 10514 12366 12395 
	}
	manpower=8977100
	buildings_max_level_factor=1.000
	state_category=town
}
