
state={
	id=55
	name="STATE_55"
	manpower = 3798235

	state_category = large_city

	history={
		owner = WSP
		buildings = {
			infrastructure = 7
			arms_factory = 1
			industrial_complex = 2
		}
		victory_points = {
			6488 20.0 
		}
		victory_points = {
			564 3
		}
		add_core_of = WSP
	}

	provinces={
		564 3397 3524 6444 6488 6549 9486 9524 9547 11445 11533 
	}
}
