state={
	id=771
	name="STATE_771" # Zambia
	
	state_category = rural

	resources={
		chromium=35 # was: 64.000
		tungsten=8 # was: 16.000
	}

	history={
		owner = ENG
		add_core_of = ZAM
		add_core_of = ENG
		victory_points = {
			5199 1
		}
		buildings = {
			infrastructure = 3

		}
	}

	provinces={
		697 1846 5199 5221 7872 10538 10594 10930 12504 12677 13173
	}
	manpower=1380089
	buildings_max_level_factor=1.000
}
