state={
	id=95
	name="STATE_95"
	# Split with Poland to look better 

	history={
		victory_points = {
			9304 1
		}
		owner = BLR
		buildings = {
			infrastructure = 5
			air_base = 3

		}
		add_core_of = SOV
		add_core_of = BLR

	}

	provinces={
		318 6413 9236 9304 9359 11341 
	}
	manpower=1098900
	buildings_max_level_factor=1.000
	state_category=rural
}
